1 1 1
2 2 2
3 3 8
9 9 20
18 18 21
25 25 24
27 27 112
54 54 113
73 73 116
97 97 119
129 129 122
171 171 125
231 231 128
313 313 131
327 327 144
649 649 145
703 703 171
871 871 179
1161 1161 182
2223 2223 183
2463 2463 209
2919 2919 217
1 2 2
1 3 8
1 4 8
1 5 8
1 6 9
1 7 17
1 8 17
1 9 20
1 10 20
100 200 125
201 210 89
900 1000 174
1 1000000 525
4580 4590 153
4581 4591 171
4582 4592 171
4583 4593 171
4584 4594 171
4585 4595 171
4586 4596 171
9 10 20
99 100 26
999 1000 112
9999 10000 92
99999 100000 227
999999 1000000 259
76 880 179
880 76 179
12 24 21
99999 100001 227
15 30 112
1280 1024 182
458 58338 340
87635 226552 386
4532 9635 262
1 333 144
5243 30000 308
856361 888 525
12522 747474 509
42 84 116
1000 1200 182
1000 1400 182
1000 1600 182
1000 1800 182
1000 1999 182
1000 2000 182
2000 2099 157
2100 2200 170
96396 369632 443
25852 852258 525
1 500000 449
1 400000 443
1 300000 443
1 200000 383
1 100000 351
7852 9852 260
4521 6523 262
10000 1 262
20000 1 279
30000 1 308
40000 1 324
50000 1 324
60000 1 340
70000 1 340
80000 1 351
90000 1 351
100000 1 351
777 7777 262
111 1111 179
222 2222 182
333 3333 217
444 4444 238
555 5555 238
666 6666 262
888 8888 262
999 9999 262
987654 1000000 440
321 1234 182
640 4600 238
